(kicad_symbol_lib
	(version 20231120)
	(generator "kicad_symbol_editor")
	(generator_version "8.0")
	(symbol "PL450B"
		(pin_names
			(offset 1.016) hide)
		(exclude_from_sim no)
		(in_bom yes)
		(on_board yes)
		(property "Reference" "LD"
			(at -1.27 4.445 0)
			(effects
				(font
					(size 1.27 1.27)
				)
			)
		)
		(property "Value" "PL450B"
			(at -1.27 -2.54 0)
			(effects
				(font
					(size 1.27 1.27)
				)
			)
		)
		(property "Footprint" "OptoDevice:LaserDiode_TO38ICut-3"
			(at 0 -4.445 0)
			(effects
				(font
					(size 1.27 1.27)
				)
				(hide yes)
			)
		)
		(property "Datasheet" "http://www.osram-os.com/Graphics/XPic5/00193831_0.pdf/PL%20450B.pdf"
			(at 0.762 -5.08 0)
			(effects
				(font
					(size 1.27 1.27)
				)
				(hide yes)
			)
		)
		(property "Description" "Blue Laser Diode (450nm), TO-38"
			(at 0 0 0)
			(effects
				(font
					(size 1.27 1.27)
				)
				(hide yes)
			)
		)
		(property "ki_keywords" "opto laserdiode"
			(at 0 0 0)
			(effects
				(font
					(size 1.27 1.27)
				)
				(hide yes)
			)
		)
		(property "ki_fp_filters" "LaserDiode*TO38ICut*"
			(at 0 0 0)
			(effects
				(font
					(size 1.27 1.27)
				)
				(hide yes)
			)
		)
		(symbol "PL450B_0_1"
			(polyline
				(pts
					(xy -4.064 1.27) (xy -2.54 2.794)
				)
				(stroke
					(width 0)
					(type default)
				)
				(fill
					(type none)
				)
			)
			(polyline
				(pts
					(xy -4.064 1.778) (xy -2.54 2.286)
				)
				(stroke
					(width 0)
					(type default)
				)
				(fill
					(type none)
				)
			)
			(polyline
				(pts
					(xy -4.064 2.286) (xy -2.54 1.778)
				)
				(stroke
					(width 0)
					(type default)
				)
				(fill
					(type none)
				)
			)
			(polyline
				(pts
					(xy -4.064 2.794) (xy -2.54 1.27)
				)
				(stroke
					(width 0)
					(type default)
				)
				(fill
					(type none)
				)
			)
			(polyline
				(pts
					(xy -3.556 2.794) (xy -3.048 1.27)
				)
				(stroke
					(width 0)
					(type default)
				)
				(fill
					(type none)
				)
			)
			(polyline
				(pts
					(xy -3.302 2.032) (xy -3.302 1.016)
				)
				(stroke
					(width 0)
					(type default)
				)
				(fill
					(type none)
				)
			)
			(polyline
				(pts
					(xy -3.302 2.032) (xy -3.302 3.048)
				)
				(stroke
					(width 0)
					(type default)
				)
				(fill
					(type none)
				)
			)
			(polyline
				(pts
					(xy -3.048 2.794) (xy -3.556 1.27)
				)
				(stroke
					(width 0)
					(type default)
				)
				(fill
					(type none)
				)
			)
			(polyline
				(pts
					(xy -1.778 2.032) (xy -4.318 2.032)
				)
				(stroke
					(width 0)
					(type default)
				)
				(fill
					(type none)
				)
			)
			(polyline
				(pts
					(xy -1.524 1.27) (xy -1.524 -1.27)
				)
				(stroke
					(width 0.1524)
					(type default)
				)
				(fill
					(type none)
				)
			)
			(polyline
				(pts
					(xy 1.27 3.048) (xy 0.762 3.048)
				)
				(stroke
					(width 0)
					(type default)
				)
				(fill
					(type none)
				)
			)
			(polyline
				(pts
					(xy 2.54 0) (xy -5.08 0)
				)
				(stroke
					(width 0)
					(type default)
				)
				(fill
					(type none)
				)
			)
			(polyline
				(pts
					(xy -0.254 1.524) (xy 1.27 3.048) (xy 1.27 2.54)
				)
				(stroke
					(width 0)
					(type default)
				)
				(fill
					(type none)
				)
			)
			(polyline
				(pts
					(xy 1.016 1.27) (xy -1.524 0) (xy 1.016 -1.27)
				)
				(stroke
					(width 0)
					(type default)
				)
				(fill
					(type outline)
				)
			)
			(polyline
				(pts
					(xy -1.524 1.524) (xy 0 3.048) (xy 0 2.54) (xy 0 3.048) (xy -0.508 3.048)
				)
				(stroke
					(width 0)
					(type default)
				)
				(fill
					(type none)
				)
			)
		)
		(symbol "PL450B_1_1"
			(pin passive line
				(at 5.08 0 180)
				(length 2.54)
				(name "A"
					(effects
						(font
							(size 1.27 1.27)
						)
					)
				)
				(number "1"
					(effects
						(font
							(size 1.27 1.27)
						)
					)
				)
			)
			(pin no_connect line
				(at -1.27 0 0)
				(length 2.54) hide
				(name "NC"
					(effects
						(font
							(size 1.27 1.27)
						)
					)
				)
				(number "2"
					(effects
						(font
							(size 1.27 1.27)
						)
					)
				)
			)
			(pin passive line
				(at -7.62 0 0)
				(length 2.54)
				(name "C"
					(effects
						(font
							(size 1.27 1.27)
						)
					)
				)
				(number "3"
					(effects
						(font
							(size 1.27 1.27)
						)
					)
				)
			)
		)
	)
	(symbol "PLT5_488"
		(pin_names
			(offset 1.016) hide)
		(exclude_from_sim no)
		(in_bom yes)
		(on_board yes)
		(property "Reference" "LD"
			(at 0 6.985 0)
			(effects
				(font
					(size 1.27 1.27)
				)
			)
		)
		(property "Value" "PLT5_488"
			(at 0 -5.715 0)
			(effects
				(font
					(size 1.27 1.27)
				)
			)
		)
		(property "Footprint" "OptoDevice:LaserDiode_TO56-3"
			(at 0 -7.62 0)
			(effects
				(font
					(size 1.27 1.27)
				)
				(hide yes)
			)
		)
		(property "Datasheet" "http://www.osram-os.com/Graphics/XPic6/00206440_0.pdf/PLT5%20488.pdf"
			(at 0.762 -5.08 0)
			(effects
				(font
					(size 1.27 1.27)
				)
				(hide yes)
			)
		)
		(property "Description" "Cyan Laser Diode (488nm), TO-56"
			(at 0 0 0)
			(effects
				(font
					(size 1.27 1.27)
				)
				(hide yes)
			)
		)
		(property "ki_keywords" "opto laserdiode"
			(at 0 0 0)
			(effects
				(font
					(size 1.27 1.27)
				)
				(hide yes)
			)
		)
		(property "ki_fp_filters" "LaserDiode*TO56*"
			(at 0 0 0)
			(effects
				(font
					(size 1.27 1.27)
				)
				(hide yes)
			)
		)
		(symbol "PLT5_488_0_1"
			(circle
				(center -1.524 0)
				(radius 0.254)
				(stroke
					(width 0)
					(type default)
				)
				(fill
					(type outline)
				)
			)
			(arc
				(start -0.508 -1.778)
				(mid -0.3302 -1.6002)
				(end -0.508 -1.397)
				(stroke
					(width 0)
					(type default)
				)
				(fill
					(type none)
				)
			)
			(arc
				(start 0 -2.159)
				(mid 0.3794 -1.778)
				(end 0 -1.397)
				(stroke
					(width 0)
					(type default)
				)
				(fill
					(type none)
				)
			)
			(polyline
				(pts
					(xy -2.54 0) (xy -1.524 0)
				)
				(stroke
					(width 0)
					(type default)
				)
				(fill
					(type none)
				)
			)
			(polyline
				(pts
					(xy -1.524 3.81) (xy 0 5.334)
				)
				(stroke
					(width 0)
					(type default)
				)
				(fill
					(type none)
				)
			)
			(polyline
				(pts
					(xy -1.524 4.318) (xy 0 4.826)
				)
				(stroke
					(width 0)
					(type default)
				)
				(fill
					(type none)
				)
			)
			(polyline
				(pts
					(xy -1.524 4.826) (xy 0 4.318)
				)
				(stroke
					(width 0)
					(type default)
				)
				(fill
					(type none)
				)
			)
			(polyline
				(pts
					(xy -1.524 5.334) (xy 0 3.81)
				)
				(stroke
					(width 0)
					(type default)
				)
				(fill
					(type none)
				)
			)
			(polyline
				(pts
					(xy -1.016 5.334) (xy -0.508 3.81)
				)
				(stroke
					(width 0)
					(type default)
				)
				(fill
					(type none)
				)
			)
			(polyline
				(pts
					(xy -0.762 4.572) (xy -0.762 3.556)
				)
				(stroke
					(width 0)
					(type default)
				)
				(fill
					(type none)
				)
			)
			(polyline
				(pts
					(xy -0.762 4.572) (xy -0.762 5.588)
				)
				(stroke
					(width 0)
					(type default)
				)
				(fill
					(type none)
				)
			)
			(polyline
				(pts
					(xy -0.635 -1.397) (xy -0.635 -2.159)
				)
				(stroke
					(width 0)
					(type default)
				)
				(fill
					(type none)
				)
			)
			(polyline
				(pts
					(xy -0.508 5.334) (xy -1.016 3.81)
				)
				(stroke
					(width 0)
					(type default)
				)
				(fill
					(type none)
				)
			)
			(polyline
				(pts
					(xy 0 -1.397) (xy 0 -2.159)
				)
				(stroke
					(width 0)
					(type default)
				)
				(fill
					(type none)
				)
			)
			(polyline
				(pts
					(xy 0 2.032) (xy 0 1.27)
				)
				(stroke
					(width 0)
					(type default)
				)
				(fill
					(type none)
				)
			)
			(polyline
				(pts
					(xy 0.762 4.572) (xy -1.778 4.572)
				)
				(stroke
					(width 0)
					(type default)
				)
				(fill
					(type none)
				)
			)
			(polyline
				(pts
					(xy 1.016 -1.27) (xy 1.016 -3.81)
				)
				(stroke
					(width 0.1524)
					(type default)
				)
				(fill
					(type none)
				)
			)
			(polyline
				(pts
					(xy 1.016 -0.762) (xy 1.524 -0.762)
				)
				(stroke
					(width 0)
					(type default)
				)
				(fill
					(type none)
				)
			)
			(polyline
				(pts
					(xy 1.016 3.81) (xy 1.016 1.27)
				)
				(stroke
					(width 0.1524)
					(type default)
				)
				(fill
					(type none)
				)
			)
			(polyline
				(pts
					(xy 3.81 5.588) (xy 3.302 5.588)
				)
				(stroke
					(width 0)
					(type default)
				)
				(fill
					(type none)
				)
			)
			(polyline
				(pts
					(xy -0.635 2.032) (xy -0.635 1.27) (xy -0.254 1.27)
				)
				(stroke
					(width 0)
					(type default)
				)
				(fill
					(type none)
				)
			)
			(polyline
				(pts
					(xy 2.286 4.064) (xy 3.81 5.588) (xy 3.81 5.08)
				)
				(stroke
					(width 0)
					(type default)
				)
				(fill
					(type none)
				)
			)
			(polyline
				(pts
					(xy 2.54 0.762) (xy 1.016 -0.762) (xy 1.016 -0.254)
				)
				(stroke
					(width 0)
					(type default)
				)
				(fill
					(type none)
				)
			)
			(polyline
				(pts
					(xy 3.556 -1.27) (xy 1.016 -2.54) (xy 3.556 -3.81)
				)
				(stroke
					(width 0)
					(type default)
				)
				(fill
					(type outline)
				)
			)
			(polyline
				(pts
					(xy 3.556 3.81) (xy 1.016 2.54) (xy 3.556 1.27)
				)
				(stroke
					(width 0)
					(type default)
				)
				(fill
					(type outline)
				)
			)
			(polyline
				(pts
					(xy 5.08 2.54) (xy -1.524 2.54) (xy -1.524 -2.54) (xy 5.08 -2.54)
				)
				(stroke
					(width 0)
					(type default)
				)
				(fill
					(type none)
				)
			)
			(polyline
				(pts
					(xy 1.016 4.064) (xy 2.54 5.588) (xy 2.54 5.08) (xy 2.54 5.588) (xy 2.032 5.588)
				)
				(stroke
					(width 0)
					(type default)
				)
				(fill
					(type none)
				)
			)
			(polyline
				(pts
					(xy 3.81 0.762) (xy 2.286 -0.762) (xy 2.286 -0.254) (xy 2.286 -0.762) (xy 2.794 -0.762)
				)
				(stroke
					(width 0)
					(type default)
				)
				(fill
					(type none)
				)
			)
			(arc
				(start 0 1.27)
				(mid 0.3794 1.651)
				(end 0 2.032)
				(stroke
					(width 0)
					(type default)
				)
				(fill
					(type none)
				)
			)
			(rectangle
				(start 4.318 6.096)
				(end -2.286 -4.318)
				(stroke
					(width 0.254)
					(type default)
				)
				(fill
					(type background)
				)
			)
		)
		(symbol "PLT5_488_1_1"
			(pin passive line
				(at 7.62 2.54 180)
				(length 2.54)
				(name "~"
					(effects
						(font
							(size 1.27 1.27)
						)
					)
				)
				(number "1"
					(effects
						(font
							(size 1.27 1.27)
						)
					)
				)
			)
			(pin passive line
				(at -5.08 0 0)
				(length 2.54)
				(name "~"
					(effects
						(font
							(size 1.27 1.27)
						)
					)
				)
				(number "2"
					(effects
						(font
							(size 1.27 1.27)
						)
					)
				)
			)
			(pin passive line
				(at 7.62 -2.54 180)
				(length 2.54)
				(name "~"
					(effects
						(font
							(size 1.27 1.27)
						)
					)
				)
				(number "3"
					(effects
						(font
							(size 1.27 1.27)
						)
					)
				)
			)
		)
	)
	(symbol "SPL_PL90"
		(pin_names
			(offset 1.016) hide)
		(exclude_from_sim no)
		(in_bom yes)
		(on_board yes)
		(property "Reference" "LD"
			(at -1.27 4.445 0)
			(effects
				(font
					(size 1.27 1.27)
				)
			)
		)
		(property "Value" "SPL_PL90"
			(at -1.27 -2.54 0)
			(effects
				(font
					(size 1.27 1.27)
				)
			)
		)
		(property "Footprint" "LED_THT:LED_D5.0mm"
			(at -1.524 -4.572 0)
			(effects
				(font
					(size 1.27 1.27)
				)
				(hide yes)
			)
		)
		(property "Datasheet" "http://www.osram-os.com/Graphics/XPic0/00194565_0.pdf/SPL%20PL90.pdf"
			(at 0.762 -5.08 0)
			(effects
				(font
					(size 1.27 1.27)
				)
				(hide yes)
			)
		)
		(property "Description" "Pulsed Laser Diode in Plastic Package 25W Peak Power"
			(at 0 0 0)
			(effects
				(font
					(size 1.27 1.27)
				)
				(hide yes)
			)
		)
		(property "ki_keywords" "opto laserdiode"
			(at 0 0 0)
			(effects
				(font
					(size 1.27 1.27)
				)
				(hide yes)
			)
		)
		(property "ki_fp_filters" "LED*5.0mm*"
			(at 0 0 0)
			(effects
				(font
					(size 1.27 1.27)
				)
				(hide yes)
			)
		)
		(symbol "SPL_PL90_0_1"
			(polyline
				(pts
					(xy -4.064 1.27) (xy -2.54 2.794)
				)
				(stroke
					(width 0)
					(type default)
				)
				(fill
					(type none)
				)
			)
			(polyline
				(pts
					(xy -4.064 1.778) (xy -2.54 2.286)
				)
				(stroke
					(width 0)
					(type default)
				)
				(fill
					(type none)
				)
			)
			(polyline
				(pts
					(xy -4.064 2.286) (xy -2.54 1.778)
				)
				(stroke
					(width 0)
					(type default)
				)
				(fill
					(type none)
				)
			)
			(polyline
				(pts
					(xy -4.064 2.794) (xy -2.54 1.27)
				)
				(stroke
					(width 0)
					(type default)
				)
				(fill
					(type none)
				)
			)
			(polyline
				(pts
					(xy -3.556 2.794) (xy -3.048 1.27)
				)
				(stroke
					(width 0)
					(type default)
				)
				(fill
					(type none)
				)
			)
			(polyline
				(pts
					(xy -3.302 2.032) (xy -3.302 1.016)
				)
				(stroke
					(width 0)
					(type default)
				)
				(fill
					(type none)
				)
			)
			(polyline
				(pts
					(xy -3.302 2.032) (xy -3.302 3.048)
				)
				(stroke
					(width 0)
					(type default)
				)
				(fill
					(type none)
				)
			)
			(polyline
				(pts
					(xy -3.048 2.794) (xy -3.556 1.27)
				)
				(stroke
					(width 0)
					(type default)
				)
				(fill
					(type none)
				)
			)
			(polyline
				(pts
					(xy -1.778 2.032) (xy -4.318 2.032)
				)
				(stroke
					(width 0)
					(type default)
				)
				(fill
					(type none)
				)
			)
			(polyline
				(pts
					(xy -1.524 1.27) (xy -1.524 -1.27)
				)
				(stroke
					(width 0.1524)
					(type default)
				)
				(fill
					(type none)
				)
			)
			(polyline
				(pts
					(xy 1.27 3.048) (xy 0.762 3.048)
				)
				(stroke
					(width 0)
					(type default)
				)
				(fill
					(type none)
				)
			)
			(polyline
				(pts
					(xy 2.54 0) (xy -5.08 0)
				)
				(stroke
					(width 0)
					(type default)
				)
				(fill
					(type none)
				)
			)
			(polyline
				(pts
					(xy -0.254 1.524) (xy 1.27 3.048) (xy 1.27 2.54)
				)
				(stroke
					(width 0)
					(type default)
				)
				(fill
					(type none)
				)
			)
			(polyline
				(pts
					(xy 1.016 1.27) (xy -1.524 0) (xy 1.016 -1.27)
				)
				(stroke
					(width 0)
					(type default)
				)
				(fill
					(type outline)
				)
			)
			(polyline
				(pts
					(xy -1.524 1.524) (xy 0 3.048) (xy 0 2.54) (xy 0 3.048) (xy -0.508 3.048)
				)
				(stroke
					(width 0)
					(type default)
				)
				(fill
					(type none)
				)
			)
		)
		(symbol "SPL_PL90_1_1"
			(pin passive line
				(at -7.62 0 0)
				(length 2.54)
				(name "C"
					(effects
						(font
							(size 1.27 1.27)
						)
					)
				)
				(number "1"
					(effects
						(font
							(size 1.27 1.27)
						)
					)
				)
			)
			(pin passive line
				(at 5.08 0 180)
				(length 2.54)
				(name "A"
					(effects
						(font
							(size 1.27 1.27)
						)
					)
				)
				(number "2"
					(effects
						(font
							(size 1.27 1.27)
						)
					)
				)
			)
		)
	)
	(symbol "PL520"
		(extends "PL450B")
		(property "Reference" "LD"
			(at -1.27 4.445 0)
			(effects
				(font
					(size 1.27 1.27)
				)
			)
		)
		(property "Value" "PL520"
			(at -1.27 -2.54 0)
			(effects
				(font
					(size 1.27 1.27)
				)
			)
		)
		(property "Footprint" "OptoDevice:LaserDiode_TO38ICut-3"
			(at 0 -4.445 0)
			(effects
				(font
					(size 1.27 1.27)
				)
				(hide yes)
			)
		)
		(property "Datasheet" "http://www.osram-os.com/Graphics/XPic7/00234693_0.pdf/PL%20520.pdf"
			(at 0.762 -5.08 0)
			(effects
				(font
					(size 1.27 1.27)
				)
				(hide yes)
			)
		)
		(property "Description" "Green Laser Diode (520nm), TO-38"
			(at 0 0 0)
			(effects
				(font
					(size 1.27 1.27)
				)
				(hide yes)
			)
		)
		(property "ki_keywords" "opto laserdiode"
			(at 0 0 0)
			(effects
				(font
					(size 1.27 1.27)
				)
				(hide yes)
			)
		)
		(property "ki_fp_filters" "LaserDiode*TO38ICut*"
			(at 0 0 0)
			(effects
				(font
					(size 1.27 1.27)
				)
				(hide yes)
			)
		)
	)
	(symbol "PLT5_510"
		(extends "PL450B")
		(property "Reference" "LD"
			(at -1.27 4.445 0)
			(effects
				(font
					(size 1.27 1.27)
				)
			)
		)
		(property "Value" "PLT5_510"
			(at -1.27 -2.54 0)
			(effects
				(font
					(size 1.27 1.27)
				)
			)
		)
		(property "Footprint" "OptoDevice:LaserDiode_TO38ICut-3"
			(at 0 -4.445 0)
			(effects
				(font
					(size 1.27 1.27)
				)
				(hide yes)
			)
		)
		(property "Datasheet" "http://www.osram-os.com/Graphics/XPic2/00227065_0.pdf/PLT5%20510.pdf"
			(at 0.762 -5.08 0)
			(effects
				(font
					(size 1.27 1.27)
				)
				(hide yes)
			)
		)
		(property "Description" "Green Laser Diode (510nm), TO-38"
			(at 0 0 0)
			(effects
				(font
					(size 1.27 1.27)
				)
				(hide yes)
			)
		)
		(property "ki_keywords" "opto laserdiode"
			(at 0 0 0)
			(effects
				(font
					(size 1.27 1.27)
				)
				(hide yes)
			)
		)
		(property "ki_fp_filters" "LaserDiode*TO38ICut*"
			(at 0 0 0)
			(effects
				(font
					(size 1.27 1.27)
				)
				(hide yes)
			)
		)
	)
)